%YAML 1.1
%TAG !u! tag:unity3d.com,2011:
--- !u!114 &11400000
MonoBehaviour:
  m_ObjectHideFlags: 0
  m_PrefabParentObject: {fileID: 0}
  m_PrefabInternal: {fileID: 0}
  m_GameObject: {fileID: 0}
  m_Enabled: 1
  m_EditorHideFlags: 0
  m_Script: {fileID: 11500000, guid: 0ccb7525509ab4d7985f472360cc1b27, type: 3}
  m_Name: Patrol Scanner
  m_EditorClassIdentifier: 
  actions:
  - {fileID: 11400000, guid: dc023552597e0409a8265b7b5e5d1a5d, type: 2}
  transitions:
  - decision: {fileID: 11400000, guid: 92cc4f9a6327840ec94e4817bc2bf7da, type: 2}
    trueState: {fileID: 11400000, guid: e9c4e0f24b4f44bf6b92289a0e4b4294, type: 2}
    falseState: {fileID: 11400000, guid: c9596000c5d234f30b0c4d4b68080453, type: 2}
  sceneGizmoColor: {r: 0.05448532, g: 1, b: 0, a: 1}
